BIO 5100 - Example Code - Correlation and Regression w/ inference and assumptions checking
…
Model Residuals (examining them)

Model residuals are the difference (in the Y or vertical direction) between the observed y values (the data) and the predicted y values (the regression line).

We can use the augment() function (from broom package, loaded with tidymodels) to extract information from the model about each point in our data set

## use augment() function (from broom package, loaded in tidymodels) to 
# extract information from the model about each point in our data set
lm_H_B_augment <- augment(lm_H_B)

# Run data table object to see (some) rows/columns:
lm_H_B_augment

# A tibble: 144 × 8
     Hwt   Bwt .fitted  .resid   .hat .sigma    .cooksd .std.resid
   <dbl> <dbl>   <dbl>   <dbl>  <dbl>  <dbl>      <dbl>      <dbl>
 1   7     2      7.71 -0.711  0.0225   1.46 0.00282       -0.495 
 2   7.4   2      7.71 -0.311  0.0225   1.46 0.000541      -0.217 
 3   9.5   2      7.71  1.79   0.0225   1.45 0.0178         1.25  
 4   7.2   2.1    8.11 -0.915  0.0185   1.46 0.00381       -0.636 
 5   7.3   2.1    8.11 -0.815  0.0185   1.46 0.00302       -0.566 
 6   7.6   2.1    8.11 -0.515  0.0185   1.46 0.00121       -0.358 
 7   8.1   2.1    8.11 -0.0149 0.0185   1.46 0.00000101    -0.0103
 8   8.2   2.1    8.11  0.0851 0.0185   1.46 0.0000330      0.0592
 9   8.3   2.1    8.11  0.185  0.0185   1.46 0.000156       0.129 
10   8.5   2.1    8.11  0.385  0.0185   1.46 0.000675       0.268 
# ℹ 134 more rows
…
Look at the lm_H_B_augment object in the data viewer (click on it in the top right environment window)

Then sort by .cooksd (Cook’s distance) and figure out which point has the highest value (i.e., what is its body and heart weight?)

Then find that point in the scatter plot of your data (you made is a much earlier code chunk).

lm_H_B_augment |>
  # select most relevent columns
  dplyr::select(Hwt, Bwt, .resid, .cooksd) |>
  # sort by Cook's distance (highest to lowest) to see which 
  # points have most influence on the model (the line)
  arrange(desc(.cooksd))

# A tibble: 144 × 4
     Hwt   Bwt .resid .cooksd
   <dbl> <dbl>  <dbl>   <dbl>
 1  20.5   3.9   5.12  0.330 
 2  11     3.7  -3.57  0.114 
 3  17.2   3.5   3.44  0.0732
 4  11.8   3.6  -2.37  0.0419
 5  16.8   3.8   1.83  0.0356
 6  11.7   3.5  -2.06  0.0263
 7  15.4   3.3   2.44  0.0246
 8  11.2   3.4  -2.16  0.0236
 9  15.7   3.5   1.94  0.0232
10  11     2.2   2.48  0.0227
# ℹ 134 more rows
…
