BIO 5100 - BIO 5100 - Correlation & Regression Intro, Normal Distributions
…
Model Residuals (examining them)

Model residuals are the difference (in the Y or vertical direction) between the observed y values (the data) and the predicted y values (the regression line).

We can use the augment() function (from broom package) to extract information from the model about each point in our data set

We can save those as a data.frame named lm_gonad_length_augment

## use augment() function (from broom package, loaded in tidymodels) to extract information from the model
# about each point in our data set
lm_gonad_length_augment <- augment(lm_gonad_length)
#
lm_gonad_length_augment

# A tibble: 98 × 9
   .rownames gonad_wt_g length_cm .fitted .resid   .hat .sigma   .cooksd
   <chr>          <dbl>     <dbl>   <dbl>  <dbl>  <dbl>  <dbl>     <dbl>
 1 1                6.6      20.3    8.42 -1.82  0.0208   3.71 0.00265  
 2 2               22        16     14.1   7.91  0.0179   3.62 0.0427   
 3 3                6.2      17.2   12.5  -6.31  0.0114   3.66 0.0170   
 4 4               17.4      17.1   12.6   4.76  0.0117   3.68 0.00997  
 5 5               17.6      15.9   14.2   3.38  0.0188   3.70 0.00814  
 6 7                9.1      17.7   11.9  -2.75  0.0104   3.70 0.00293  
 7 8               15.4      15.1   15.3   0.123 0.0266   3.71 0.0000155
 8 9                8.8      21.1    7.37  1.43  0.0294   3.71 0.00234  
 9 10               7.6      19.1   10.0  -2.41  0.0127   3.70 0.00276  
10 11               9        19.1   10.0  -1.01  0.0127   3.71 0.000483 
# ℹ 88 more rows
# ℹ 1 more variable: .std.resid <dbl>
…
